{
  "count": 9,
  "next": "http://127.0.0.1/api/v1/glossary/?limit=3&offset=6",
  "previous": "http://127.0.0.1/api/v1/glossary/?limit=3",
  "results": [
    {
      "id": 4,
      "term": "term_4",
      "definition": "definition_4"
    },
    {
      "id": 5,
      "term": "term_5",
      "definition": "definition_5"
    },
    {
      "id": 6,
      "term": "term_6",
      "definition": "definition_6"
    }
  ]
}