{
  "count": 9,
  "next": "http://127.0.0.1/api/v1/foreign/?limit=3&offset=6",
  "previous": "http://127.0.0.1/api/v1/foreign/?limit=3",
  "results": [
    {
      "id": 4,
      "foreign_word": "table foreign",
      "native_word": "table native"
    },
    {
      "id": 5,
      "foreign_word": "box foreign",
      "native_word": "box native"
    },
    {
      "id": 6,
      "foreign_word": "word foreign",
      "native_word": "word native"
    }
  ]
}