{
  "count": 9,
  "next": "http://127.0.0.1/api/v1/glossary/?limit=3&offset=3",
  "previous": null,
  "results": [
    {
      "id": 1,
      "term": "term_1",
      "definition": "definition_1"
    },
    {
      "id": 2,
      "term": "term_2",
      "definition": "definition_2"
    },
    {
      "id": 3,
      "term": "term_3",
      "definition": "definition_3"
    }
  ]
}