{
  "count": 100,
  "next": "http://127.0.0.1/api/v1/glossary/?limit=20&offset=20",
  "previous": null,
  "results": [
    {
      "id": 1,
      "term": "hello",
      "definition": "привет"
    },
    {
      "id": 2,
      "term": "apple",
      "definition": "яблоко"
    },
    {
      "id": 3,
      "term": "pen",
      "definition": "ручка"
    }
  ]
}